…
``` r
# run RECOMBINE pipeline
recombine.out <- recombine_pipeline(sobj, 
                                    subpop_name = "subclass",
                                    n_constraint = 50)

# discriminant markers and weights
recombine.out$df_w
#> # A tibble: 50 × 2
#>    marker     w
#>    <chr>  <dbl>
#> 1  Vip    0.404
#> 2  Gad1   0.264
#> 3  Sst    0.196
#> 4  Synpr  0.193
#> 5  Npy    0.189
#> 6  Cck    0.178
#> 7  Pcp4   0.146
#> 8  Nrgn   0.142
#> 9  Rab3b  0.127
#> 10 Gad2   0.124
#> # ℹ 40 more rows

# recurrent composite markers of cell subpopulations
recombine.out$df_rcm_subpop %>%
  filter(fract_signif_cells > 0.5 & avg_nhood_zscore > 2 & PR_AUC > 0.5) %>%
  group_by(subclass) %>%
  slice_max(avg_nhood_zscore, n = 3) %>%
  ungroup()
#> # A tibble: 28 × 6
#>    subclass marker        fract_signif_cells avg_nhood_zscore PR_AUC ROC_AUC
#>    <chr>    <chr>                      <dbl>            <dbl>  <dbl>   <dbl>
#> 1  Astro    Apoe                       1                22.2   0.704   0.996
#> 2  Astro    Aldoc                      1                19.3   1       1
#> 3  Astro    Slc1a2                     1                13.2   1       1
#> 4  L2/3 IT  Arpp19                     0.999             5.47  0.629   0.950
#> 5  L2/3 IT  Olfm1                      0.999             4.84  0.678   0.951
#> 6  L2/3 IT  Chn1                       1                 4.72  0.532   0.957
#> 7  L4       Rgs4                       1                 7.43  0.779   0.985
#> 8  L4       Arpp21                     1                 6.43  0.552   0.960
#> 9  L4       1110008P14Rik              1                 5.67  0.639   0.943
#> 10 L6 CT    3110035E14Rik              1                 8.66  0.641   0.984
#> # ℹ 18 more rows
```
…
